SKU,Input Voltage,Pumping Head,Max Flow Rate,Tank Capacity,Noise Level,Max Cooling Capacity,Ambient Temperature,Power Consumption,Inlet ID,Outlet ID,Suitable for,Description
HYP-RS11,100-230V,8m,12ltr/hr,35ml,19dBA,8kW,0 - 50C,3W,,,,Remote Sensor Condensate Pump - 8kw
HYP-RS21,100-230V,8m,20ltr/hr,35ml,21dBA,15kW,0 - 50C,3W,,,,Remote Sensor Condensate Pump - 15KW
HYP-D11,100-230V,8m,12ltr/hr,55ml,19dBA,8kW,0 - 50C,3W,,,,In Duct Corner Condensate Pump - 8KW
HYP-D21,100-230V,8m,20ltr/hr,55ml,21dBA,15kW,0 - 50C,3W,,,,In-Duct Corner Condensate Pump-15KW
HYP-MT1,230V,4m,125ltr/hr,1ltr,48dBA,,0 - 50C,60W,,,,Mini Reservoir Condensate Pump - 125Ltr/hr flow rate
HYP-MT2,230V,4.2m,215ltr/hr,1ltr,26dBA,,0 - 50C,15W,,,,Reservoir Condensate Pump -250ltr/hr Flow rate
HYP-MT3,230V,7m,675ltr/hr,4ltr,38dBA,,0 - 50C,40W,,,,Reservoir Condensate Pump - 760ltr/hr flow rate
HYP-HT2,230V,7m,675ltr/hr,4ltr,38dBA,,0 - 90C,40W,,,,High Temperature Resevoir Condensate Pump - 0-90*C
HYP-DP30-M,230V,30m,95ltr/hr,3ltr,40-62dBA,,0 - 75C,30W,,,,Dairy Case Pump - 120ltr/hr flow rate
HYP-DP30-P,230V,30m,340ltr/hr,11ltr,60dBA,,0 - 40C,80W,,,,
HY/DP30-S,230V,30m,110ltr/hr,5ltr,,,0 - 50C,37W,,,,Hydron DP30 Slim Dairy  Cabinet Pump  30m Pumping Head
HY/NANO4,230V,4m,12ltr/hr,,26dBA,,30C,,4mm,4-6mm,,Nano 4 Pump Special for Gram International Special
HY/CP/FS2,230V,9m,16ltr/hr,,28-32dBA,,,30W,6mm,6mm,up to 20kw,Hydron Compact MK2 Condensate Pump c/w SP10
