Brand,SKU,Flow Rate (L/Hr),Max Head (m),Tank Capacity,Sound (dBA),Power,Rated,Class,Max Unit Output,Max Temp,Inlets ID,Outlet ID,IP Rating,Safety ,Thermal Protection,Suction Lift (m),Dimensions,Man Part,Dist Part,Hydron Equiv,Cost,Image 800 x 800
,HC-2 - CONDENSATE PUMP,600,12,,,,,,,120,,,,,,,,,,,,
Aspen,HOT WATER ECONOMY,900,6,4L,60dBA,"230vac, 1.5a, 50hZ",Non-Continous,Class I Appliance,1200kW / 4m Btu/h,100C,40mm in / 10mm out,,IP20,3.0A N/C,Yes,,300 x 150 x 205,FP2092/2,,HYP-HT2,,
Little Giant,3-ABS (551330),300,8,4L,,"230VAC, 50/60Hz",,,210kW,120C,10mm,,,1.8A N/C,,,305.56 x 152.4 x 165.1,551330,,,,
Sauermann,SI - 1830,400,3.7,0.5L,43 dBA,"230VAC, 50Hz",Non-Continuous,,75kW,120C,10mm,,IPX4,4A N/C,,,,SI1830SCUN23,,,,
Little Giant,VCC20 (554210),300,5,1L,,"230VAC, 50/60Hz",,,75kW,120C,9.5mm,,,0.5A N/C,Yes,,305 x 127 x 130,554210,,,,
Sauermann,SI 1805,500,5.4,2L,47 dBA,"230VAC, 50/60Hz",Non-Continuous,,90Kw,130C,10mm - 20mm,,IP20,4A N/C,Yes,,195 x 130 x 122,SI1806SIAN23,,,,
Little Giant,VCC-20-P (554220102),300,5,1L,,"230VAC, 50/60Hz",,,60kW,140C,9.5mm,,,0.5A N/C,Yes,,305 x 127 x 130,554220102,,,,
Little Giant,VCMA 20 (554451),300,5,2.25L,,"230VAC, 50/60Hz",,,75kW,140C,"9.5mm,",,,0.5A N/C,Yes,,280 x 127 x 178,554451,,,,
Little Giant,VCMX-20UL (554521),300,5,,,"230VAC, 50/60Hz",,,75kW,140C,"9.5mm,",,,0.6A N/C,,,260 x 122 x 165,554521,,,,
Little Giant,VCMX-20ULS (554531),300,5,,,"230VAC, 50/60Hz",,,75kW,140C,"9.5mm,",,,0.6A N/C,,,260 x 122 x 165,554531,,,,
Diversitech,ClearVue™ Pump,,,2.25L,,"230VAC, 60Hz",Continuous,,,140C,,,,1.0A,,,297 x 149 x 160,ClearVue,,,,
Little Giant,EC-1-DV (553507),10,10,,21 dBA,"230VAC, 50/60Hz",,,"18kW / 34,000Btu/h",140C,,,,0.18A N/C,Yes,0.91,104.40 x 46.23 x 60.74,553507,,HYP-RS11,,
Aspen,HEAVY DUTY 6 TANK PUMP,900,6,4L,60 dBA,"230VAC, 1.5A, 50Hz",Non-Continous,Class I Appliance,1200kW / 4m Btu/h,40C,40mm in / 10mm out,,IP20,3.0A N/C,,,300 x 150 x 205,FP2074/2,,,,
Aspen,HEAVY DUTY 10 TANK PUMP,1070,9,4 L,64 dBA,"230 V AC, 0.38 Amp, 50 Hz",Continous,Class 1 Appliance,1460kW / 4.9m Btu/h,40C,40mm in / 10mm out,10mm,IP20,3.0A N/C,,,300 x 150 x 265,FP2066/2,,,,
Aspen,HI-LIFT 1L,11,12,1 L,51,"230VAC, 0.4A, 50/60Hz",Continous,Class I Appliance,"14kW / 47,000Btu/h",40C,25mm In / 6mm out,,IP20,3.0A N/C,,N/A,244 x 148 x 132,FP2099/2,,HYP-MT1/MT2,,
Aspen,HI-LIFT 2L,11,12,2 L,51,"230VAC, 0.4A, 50/60Hz",Continous,Class I Appliance,"14kW / 47,000Btu/h",40C,25mm In / 6mm out,,IP20,3.0A N/C,Yes,N/A,244 x 148 x 164,FP2071/2,,NO EQUIVALANT,,
Aspen,MINI BLANC DELUXE,12,10,0.24L,21 dBA,"230VAC, 0.11A, 16W, 50/60Hz",Non-Continous,Class II Appliance,"16kW / 54,000Btu/h",40C,"20mm in, 6mm out",,IP21,3.0A N/C,Yes,N/A,182 x 55 x 115,FP1080/2,,HYP-RS21,24.98,
Aspen,MINI ORANGE PUMP,12,10,,21 dBA,"230VAC, 0.11A, 16W, 50/60Hz",Non-Continous,Class II Appliance,"16kW / 54,000Btu/h",40C,6mm,,IP21,3.0A N/C,Yes,2,116 x 39 x 51,FP2212,,HYP-RS21,24.98,
Aspen,MINI AQUA,12,10,,21 dBA,"230VAC, 0.1A, 16W, 50/60Hz",Non-Continous,Class II Appliance,"16kW / 54,000Btu/h",40C,6mm,,IP24,3.0A N/C,Yes,2,183 x 28 x 28,FP2406/2,,HYP-RS21,24.98,
Aspen,Mini Orange Silent+,12,10,,19 dBA,"230VAC, 0.11A, 16W, 50/60Hz",Non-Continous,Class II Appliance,"16kW / 58,000Btu/h",40C,6mm,,IP21,3.0A N/C,Yes,2,116 x 39 x 51,FP3313,,HYP-D11,,
Aspen,Mini Aqua Silent+,12,10,,19 dBA,"230VAC, 0.1A, 16W, 50/60Hz",Non-Continous,Class II Appliance,"16kW / 58,000Btu/h",40C,6mm,,IP24,3.0A N/C,Yes,2,183 x 28 x 28,FP3326,,HYP-D11,,
Aspen,MINI LIME Silent+,12,10,,20 dBA,"230VAC, 0.1A, 16W, 50/60Hz",Non-Continous,Class II Appliance,"16kW / 58,000Btu/h",40C,6mm,,IP24,5.0A N/C,Yes,N/A,101 x 47 x 239,FP3312,,HYP-D21,24.98,
Aspen,MINI TANK PUMP,35,15,0.24l,35 dBA,"230 VAC, 0.1A, 16W, 50/60Hz",Non-Continous,Class II Appliance,"46kW / 157,000Btu/h",40C,6mm/10mm,2,IP65,3.0A Normally closed,Yes,N/A,210 x 89 x 69,FP1056/2,,HYP-MT1,17.78,
Aspen,MAXI ORANGE PUMP,35,15,,35 dBA,"230VAC, 0.11A, 16W, 50/60Hz",Non-Continous,Class II Appliance,"46kW / 157,000Btu/h",40C,6mm,,IP21,3.0A N/C,Yes,2,122 x 44 x 66,FP2210,,NO EQUIVALANT,,
Aspen,MAXI LIME,35,15,,35 dBA,"230VAC, 0.1A, 16W, 50/60Hz",Non-Continous,Class II Appliance,"46kW / 157,000Btu/h",40C,6mm,,IP24,3.0A N/C,Yes,2,99 x 44 x 119,FP2215,,HYP-D21,,
Blue Diamond,IP Pump,35,15,0.24L,35 dBA,"230VAC, 0.1A, 16W, 50/60Hz",,Class II Appliance,"46kw / 157,000Btu/h",40C,"22, 12, 27mm in / 6 - 10mm out",,IP65,3.0A N/C,,,205 x 93.5 x 60.5,,,,,
Aspen,MAX HI-FLOW,550,5,1.7L,44 dBA,"230 VAC, 0.8A, 50Hz",Non-Continous,Class I Appliance,733kW / 2.5mBtu/h,40C,6mm x 10mm,2,IP24,3.0A N/C,Yes,N/A,285 x 144 x 134,FP3349,,HYP-MT3,68,
Aspen,ERRP LOW PROFILE,190,21,3.5L,60 dBA,"230VAC, 0.2A, 50/60Hz",Non-Continous,Class I Appliance,N/A,40C,50mm in / 10mm out,,IP24,3.0A N/C,Yes,N/A,530 x 240 x 75,FP2597,,HYP-DP30-P,,
Aspen,COLD CABINET,225,35,11L,60 dBA,"230VAC, 0.38A, 50/60Hz",Non-Continous,Class I Appliance,N/A,40C,50mm in / 10mm out,,IP21,3.0A N/C,Yes,,285 x 400 x 100,FP2120,,HY/DP30-S,,
Aspen,ERRP,225,35,11L,60 dBA,"230VAC, 0.2A, 50/60Hz",Non-Continous,Class I Appliance,N/A,40C ,50mm in / 10mm out,,IP24,3.0A N/C,Yes,N/A,590 x 405 x 100,FP2318,,HYP-DP30-P,,
Pump House,DCP-30V Dairy Cabinet (Michael),700,22,4.5L,,,,,,49C,,,IP44,,,,610 x 76 x 200,,,,,
Pump House,DCP-30A Dairy Cabinet (Vincent),700,22,5.5L,,,,,,49C,,,IP44,,,,610 x 200 x 76,,,,,
Pump House,DCP-30E Dairy Cabinet (Clarence),700,22,5.5L,,,,,,49C,,,IP44,,,,610 x 200 x 76,,,,,
Sauermann,Si-83,700,5.4,2L,45 dBA,"230VAC, 50Hz",Non-Continuous,Class I ,115kW,80C,Ext 10mm (3/8) - 6mm (1/4),,IP44,5A N/C,Yes,,287 x 146 x 129,SI83CE04UN23,,HYP-HT2,68,
Aspen,HOT WATER HEAVY DUTY,1800,15,5L,63 dBA,"230vac, 1.5a, 50/60hZ",Continous,Class I Appliance,2400kW / 8m Btu/h,80C,40mm in / 15mm out,,IP21,3.0A N/C,Yes,,320 x 355 x 160,FP2132,,,,
Sauermann,Si-82,500,5,,45 Dba,"230vac, 50hZ",Non-Continuous,,70kW,80C,10mm - 6mm,,IP20,4A N/C,Yes,,279 x 130 x 174.5,SI82CE04UN23,,HYP-HT2,,
Sauermann,Si-1822,380,5.8,3.8L,47 dBA,"230VAC, 50Hz",Continuous,,90kW,80c,10mm,,IP20,4A N/C,Yes,,305 x 152 x 235,SI1822SIUN23,,HYP-HT2,,
Sauermann,Si-1850,1100,10,3.8L,66 dBA,"230VAC, 50Hz",Continuous,,220kW,87C,10mm - 40mm,,IP20,4A N/C,Yes,,305 x 152 x 257,SI1850SIUN23,,,,
Sauermann,Si - 1931,700,24.6,6.5L,60 dBA,"230VAC, 50Hz",Non-Continuous,,13kW,,32mm - 50mm,,IP20,8A N/O,,,610 x 235 x 80,SI1931CE01UK23,,HY/DP30-S,,
Blue Diamond,Mega Blue with Drainstik,50,20,,23 dBA,,,,14 - 50 kW,,,,,,,7,234 x 58 x 68,X87-820,,NO EQUIVALANT,,
Blue Diamond,Mega Blue with Reservoir,50,20,,23 dBA,,,,14 - 50 kW,,,,,,,7,234 x 58 x 68,X87-813,,HYP-MT2,19.45,
Blue Diamond,Mega Blue with Temperature Sensors,50,20,,23 dBA,,,,14 - 50 kW,,,,,,,7,234 x 58 x 68,X87-814,,NO EQUIVALANT,,
Blue Diamond,Mini Blue with CR Plugs,8,8,,21 dBA,,,,3.5 - 8 kW,,,,,,,5,138 x 58 x 67,X87-500,,NO EQUIVALANT,,
Blue Diamond,Mini Blue with Temperature Sensors,8,8,,21 dBA,,,,3.5 - 8 kW,,,,,,,5,138 x 58 x 67,X87-504,,NO EQUIVALANT,,
Blue Diamond,Mini Blue R,8,8,,21 dBA,,,,3.5 - 8 kW,,,,,,,5,138 x 58 x 67,X87-507,,,,
Blue Diamond,MicroBlue with High Level Alarm,5,5,,17 dBA,,,,3.5 kW,,,,,,,2,140 x 40 x 37,X85-001,,HYP-RS21,24.98,
Blue Diamond,MicroBlue with Fail Safe Alarm,5,5,,17 dBA,,,,3.5kW,,,,,,,2,150 x 40 x 37,X85-002,,NO EQUIVALANT,,
Blue Diamond,Maxi Blue with Drainstik,14,8,,21 dBA,,,,8 - 14 kW,,,,,,,8,158 x 58 x 67,X87-702,,NO EQUIVALANT,,
Blue Diamond,Maxi Blue with Reservoir,14,8,,21 dBA,,,,8 - 14 Kw,,,,,,,8,158 x 58 x 67,X87-701,,NO EQUIVALANT,17.78,
Blue Diamond,Maxi Blue with Temperature Sensor,14,8,,21 dBA,,,,8 - 14 kW,,,,,,,8,158 x 58 x 67,X87-703,,NO EQUIVALANT,,
Blue Diamond,Maxi Blue Pro,14,8,,21 dBA,,,,8 - 14 kW,,,,,,,8,158 x 58 x 67,X87-707,,,,
Jet,Jet 668197 tank pump - ACR - 1.7lt,300,5,1.7,49,,IP20,,,,,,,,,,,668197,,,,
Blue Diamond,Polar Blue,14,8,3L,,"230VAC, 50/60Hz",,,,,32mm In / 12mm Out,,,,,,365 x 304 x 68,X87-846,,,,
Blue Diamond,Arctic Blue,50,20,4.1L,,"230VAC, 50/60Hz",,,,,40mm In / 12mm Out,,,,,,430 x 305 x 87,X87-837,,,,
Blue Diamond,Arctic Blue Slim,50,20,4.1L,,"230VAC, 50/60Hz",,,,,32mm In / 12mm Out,,,,,,457 x 364 x 68,X87-840,,HY/DP30-S,,
Kooltech,Kooltech Kooltank Ultimate 2Ltr Condensate Tank Pump,,,discontinued,,,,,,,,,,,,,,,,,,
Grundfos,CONLIFT 1 LS AUTOMATIC CONDENSATE REMOVAL PUMP,600,5.5,,,,,,,,,,,,,,183mm (h) x 165mm (w) x 258mm (d),,,,,
STÖRNCH,High Flow Tank Pump,300,5,,,,,,,,,,,,,,285 x 138  x 144,,GMP95,HYP-MT3,68,
STUART TURNER,WASTEFLO BC3 BOILER CONDENSATE PUMP 240V,288,5,,,,,,,,,,,,,,,46663,,,,
Charles Austen,MiniBlue ,8,,,,,,,,,,,,,,,,,,,,
Aspen,Peristaltic Pump,,,,,,,,,,,,,,,,,FP2079,,,,
Charles Austen,MaxiBlue,,,,,,,,,,,,,,,,,,,,,
Little Giant,1-ABS (550515),,,,,,,,,,,,,,,,,,,,,
Little Giant,TPS Peristalti (553674,,,,,,,,,,,,,,,,,,,,,
Little Giant,VCC-20ULS (554200),,,,,,,,,,,,,,,,,,,,,
Little Giant,VCL-24ULS (553201),,,,,,,,,,,,,,,,,,,,,
Little Giant,VCL45S (553138),,,,,,,,,,,,,,,,,,,,,
Little Giant,VCMX-20S (554532),,,,,,,,,,,,,,,,,,,,,
Saniflo,SANIFLO SANICONDENS BEST CONDENSATE PUMP,,,,,,,,,,,,,,,,,,,,,
,CE200 waste water disposal unit,,,,,,,,,,,,,,,,,,,,,
,CP35 - Dairy Cabinet Pump,,,,,,,,,,,,,,,,,,,,,
,TP1 Boiler and air-conditioning condensate pump,,,,,,,,,,,,,,,,,,,,,
,UPC 30 Dairy Cabinet Pump,,,,,,,,,,,,,,,,,,,,,
,,,,,,,,,,,,,,,,,,,,,,
Sauermann,Si-1806,,,,,,,,,,,,,,,,,,,,,
Sauermann,PE 5000,,,,,,,,,,,,,,,,,,,,,
Sauermann,PE5100,,,,,,,,,,,,,,,,,,,,,
Sauermann,PE5200,,,,,,,,,,,,,,,,,,,,,
Pump House, PH-20-STA Tank Condensate Pump,,,,,,,,,,,,,,,,,,,,,
Pump House," PH-2LE Economy Tank Condensate Pump, 2Ltr ",,,,,,,,,,,,,,,,,(PE1490),,,,
Diversitech,CP-22 Pumps,,,,,,,,,,,,,,,,,,,,,
Diversitech,CP22 LP,,,,,,,,,,,,,,,,,,,,,
Diversitech,CP-16 condensate pump ,,,,,,,,,,,,,,,,,,,,,
Beckett ,CB151UL 115 Volt Condensate Pump,,,,,,,,,,,,,,,,,,,,,
