﻿brand,sku,description,flow_rate,max_head,tank_capacity,sound,power,max_temp,inlets_no,outlets_no,ip_rating,safety,thermal_protection,suction_lift,height,width,depth,man_part,dist_part,hydron_equiv,cost,image,image_link
Grundfos,98452219,CONLIFT 1 LS AUTOMATIC CONDENSATE REMOVAL PUMP,600,5.5,2.65,,240,,35m ,,IP20,N/A,N/A,16,183mm (h) , 165mm (w) , 258mm (d),98452219,,HYP-MT3,£152.10,Image 001,https://www.amazon.co.uk/Grundfos-Conlift-Condensate-Removal-Boiler/dp/B015YC19DU
Aspen,10103740000,MINI AQUA,12,10,,21,240,40,6,,IP24,3.0A N/C,Yes,2,183,28,28,FP2406/2,,HYP-RS21,£24.98,Image 002,https://www.aspenpumps.com/en-gb/aspen-pumps/mini-pumps/mini-aqua
Aspen,10106470000,COLD CABINET,225,35,11,60,240,40,50,10,IP21,3.0A N/C,Yes,N/A,285,400,100,FP2120,,HY/DP30-S,£633.16 ,Image 003,https://www.aspenpumps.com/en-gb/aspen-pumps/supermarket-pumps/cold-cabinet
Aspen, FP2092,HOT WATER ECONOMY,900,6,4,60,240,100,40,10,IP20,3.0A N/C,Yes,N/A,300,150,205,FP2092/2,,HYP-HT2,£470.80,Image 004,https://www.aspenpumps.com/en/aspen-pumps/tank-pumps/hot-water-economy
Pump House, PH-20-STA Tank Condensate Pump,Condensate Pump,402,5.5,1.8,43,240,65,9.5,9.5,IP : 20,N/A,N/A, 5.5 m,166,286,166,27308,,HYP-MT3,£54.91,Image 005,https://hvac-kit.co.uk/acatalog/Pump-House-PH-20-STA-Boiler-Condensate-Pump-27308.html
Pump House," PH-2LE Economy Tank Condensate Pump, 2Ltr",,300,4.8,1.9,44,240,,22,6,IP44,N/A,N/A,,290,130,180,(PE1490),,HYP-MT3,£35.00,Image 006,https://www.hawco.co.uk/en/pump-house-low-cost-tank-pump
Blue Diamond, X85-003,MicroBlue with High Level Alarm,5,5,,17,240,,40,6, IP4,,Yes,2,140,40,37,X85-001,,HYP-RS21,£24.98,Image 007,https://www.amazon.com/Blue-Diamond-Pumps-MicroBlue-Reservoir/dp/B07KF2TS1B
Aspen, APNFP2066/2,HEAVY DUTY 10 TANK PUMP,1070,9,4,64,240,40,40,10,IP20,3.0A N/C,N/A,N/A,300,150,265,FP2066/2,,HYP-MT3,£194.34,Image 008,https://www.aspenpumps.com/en-gb/aspen-pumps/tank-pumps/heavy-duty-6-10
Blue Diamond, BDP-X85-002,MicroBlue with Fail Safe Alarm,5,5,,17,240,,14,6, IP4,,Yes,2,150,40,37,X85-002,,HYP-RS11,£55.94,Image 009,https://www.hawco.co.uk/en/blue-diamond-condensate-pump-x85-002
Aspen, FP2071,HI-LIFT 2L,11,12,2,51,240,40,25,6,IP20,3.0A N/C,Yes,N/A,244,148,164,FP2071/2,,NO EQUIVALANT,£122,Image 011,https://www.rsconline.uk/aspen-hi-lift-2ltr-tank-pump-fp20712-110-p.asp
Aspen, FP2213,MAXI LIME,35,15,,35,240,40,6,,IP24,3.0A N/C,Yes,2,99,44,119,FP2215,,HYP-D21,£110.49,Image 012,https://www.aspenpumps.com/en-gb/aspen-pumps/mini-pumps/maxi-lime
Aspen, FP2805,ERRP,225,35,11,60,240,40,50,10,IP24,3.0A N/C,Yes,N/A,590,405,100,FP2318,,HYP-DP30-P,£357.21,Image 013,https://www.aspenpumps.com/en/aspen-pumps/supermarket-pumps/errp
Aspen, FP3313,MINI ORANGE PUMP,12,10,,21,240,40,6,,IP21,3.0A N/C,Yes,2,116,39,51,FP2212,,HYP-RS21,£24.98,Image 014,https://www.aspenpumps.com/en-gb/aspen-pumps/mini-pumps/mini-orange
Aspen, FP3349,MAX HI-FLOW,550,5,1.7,44,240,40,10-Jan,6,IP24,3.0A N/C,Yes,N/A,285,144,134,FP3349,,HYP-MT3,£68.00,Image 015,https://www.aspenpumps.com/en-gb/aspen-pumps/tank-pumps/max-hi-flow
Charles Austen, X87-701,MaxiBlue,14 , 23,,,240,60,14,8,IP-44,,Yes,8m,74,65,105,X87-702,,HYP-RS21,£250.12,Image 016,https://www.brymec.com/charles-austen-maxi-blue-reservoir.html
Little Giant,1-ABS (550515),Condensate Removal Pump,205,120,0.12,,115,50,25,12,IP24,0.5A N/C,Yes,10' ,6.9,3.8,4.29,550515 1,,NO EQUIVALANT,£50.00,Image 017,https://www.ebay.com/itm/265732643086
Little Giant,3-ABS (551330),Condensate Pumps,300,8,4,45,240,120,10,,IP24,1.8A N/C,N/A,26,305,152,165,551330,,NO EQUIVALANT,£367.26,Image 018,https://www.pumpproducts.com/little-giant-551330-model-3-abs-1-2-discharge-shallow-pan-condensate-removal-pump-1-12-hp-230v-310-gph.html
Beckett ,CB151UL.,CB151UL 115 Volt Condensate Pump,120,, 2.0,37,115,40,,06-Jan,IP24,3.0A N/C,Yes,N/A,11,5,6.5,CB151UL,,NO EQUIVALANT,£44.98,Image 019,https://www.ebay.com/itm/284567552938
Blue Diamond,CBK04672,Polar Blue,14,8,3,21,240,,32,12,IP24,,Yes,7,365,304,68,X87-846,,HYP-DP30-S,£128.90,Image 020,https://www.bluediamondpump.co.uk/refrigeration-range
HPC,CE200 waste water disposal unit,waste water disposal unit,200,9.5,4.6,,240,60,38,12,, 0.5A,N/A, 4m,,,,PH-3-HW,,HYP-HT2,£232.00,Image 021,https://www.huntingdonpump.com/condensate-hot-waste-water-lift-pumps.php
Diversitech,ClearVueâ„¢ Pump,Condensate Pump,360,7,2.25,,240,140,4.4,2,IP24,1.0A,Yes,22,297,149,160,IQP120,,HYP-MT3,£115.00,Image 022,https://www.amazon.com/Diversitech-IQP-120-Clearvue-Condensate-Pump/dp/B013RTJKRO
Diversitech,CP22 LP,CP-22 Condensate Pump,360,7,2.25,,240,140,4.4,2,IP24,1.0A,Yes,22,297,149,160,CP-22LP ,,HYP-MT1,£115.00,Image 024,https://www.amazon.com/Diversitech-Corporation-CP-22LP-Condensate-Pump/dp/B008HQ2N9K
Diversitech,CP-22 Pumps,CP-22 Condensate Pump,360,7,2.25,,240,140,4.4,2,IP24,1.0A,Yes,22,297,149,160,DIVCP16,,HYP-MT2,£115.00,Image 025,https://www.amazon.com/DIVERSITECH-Diversitech-Condensate-Removal-12X6X6-3/dp/B0B2MFZJ4Q
HPC,CP35 - Dairy Cabinet Pump,Dairy Cabinet Pump,425,25,5.5,,240,49,,12,IP 44, 0.5A,N/A,22,610,200,76,DCP-30A,,HYP-DP30-P,£357.00,Image 026,https://www.pumph.co.uk/product/dairy-cabinet-pumps/
Pump House,DCP-30E Dairy Cabinet (Clarence),Dairy Cabinet Pump ,700,22,5.5,,240,49,,12,IP44,N/A,N/A,24.6 ,610,200,76,DCP-30E,,HYP-DP30-P,£457.02,Image 028,"https://www.orionairsales.co.uk/dairy-cabinet-pump-dcp-30e-for-cold-display-cabinets-supermarkets-and-convenience-stores-240v50hz-7455-p.asp#:~:text=Dairy%20Cabinet%20Pump%20DCP%2D30E,And%20Convenience%20Stores%20240V%2050Hz"
Pump House,DCP-30V Dairy Cabinet (Michael),Dairy Cabinet Pumps ,700,22,4.5,24,240,49,,6,IP44,1/A,Yes,,610,76,200, DCP-30V,,HYP-DP30-P,£447.22,Image 029,https://www.orionairsales.co.uk/dairy-cabinet-vertical-pump-dcp-30v-for-cold-display-cabinets-supermarkets-and-convenience-stores-240v50hz-7456-p.asp
Little Giant,EC-1-DV (553507),Condensate Removal Pump,10,10,,24,240,60,,10,,0.18A N/C,Yes,0.91,104.4,46.23,60.74,553507,,HYP-RS11,£125.28,Image 030,https://www.supplyhouse.com/Little-Giant-553507-EC-1-DV-2-5-GPH-Mini-Condensate-Removal-Pump-110-240V
Aspen,FP1056/2,MINI TANK PUMP,35,15,0.24,35,240,40,10,2,IP65,3.0A Normally closed,Yes,N/A,210,89,69,FP1056/2,,HYP-MT1,£17.78,Image 031,https://www.aspenpumps.com/en/aspen-pumps/tank-pumps/mini-tank
Aspen,FP1080/2,MINI BLANC DELUXE,12,10,0.24,21,240,40,20,6,IP21,3.0A N/C,Yes,N/A,182,55,115,FP1080/2,,HYP-RS21,£24.98,Image 032,https://www.airconspares.com/aspen-pumps-mini-blanc-air-conditioning-condensate-pump-deluxe-fp1080-2
Aspen,FP1282,Peristaltic Pump,6.25,12,10,47,240,40,6,6,IP24,3.0A N/C,Yes,3m,305,160,145,FP2079,,NO EQUIVALANT,£11.10,Image 033,https://www.pipelagging.com/accessories-insulation-tape-glue-tools/aspen-universal-peristaltic-condensate-pump-fp2082-2
Aspen,FP2074,HEAVY DUTY 6 TANK PUMP,900,6,4,60,240,40,40,,IP20,3.0A N/C,N/A,N/A,300,150,205,FP2074/2,,HYP-MT2,£164.62,Image 034,https://www.aspenpumps.com/en/aspen-pumps/tank-pumps/heavy-duty-6-10
Aspen,FP2099,HI-LIFT 1L,11,12,1,51,240,40,25,6,IP20,3.0A N/C,Yes,N/A,244,148,132,FP2099/2,,HYP-MT2,£170.84,Image 035,https://www.aspenpumps.com/en-gb/aspen-pumps/tank-pumps/hi-lift-1-2l
Aspen,FP2132,HOT WATER HEAVY DUTY,1800,15,5,63,240,80,40,15,IP21,3.0A N/C,Yes,LIFT 1.5m.,320,355,160,FP2132,,HYP-HT2,£254.65 ,Image 036,https://www.aspenpumps.com/en-gb/aspen-pumps/tank-pumps/hot-water-heavy-duty
Aspen,FP2210,MAXI ORANGE PUMP,35,15,,35,240,40,6,,IP21,3.0A N/C,Yes,2,122,44,66,FP2210,,HYP-RS21,£125,Image 037,https://www.aspenpumps.com/en-in/aspen-pumps/mini-pumps/maxi-orange
Aspen,FP2597,ERRP LOW PROFILE,190,21,3.5,60,240,40,50,10,IP24,3.0A N/C,Yes,N/A,530,240,75,FP2597,,HYP-DP30-P,£357.21,Image 038,https://www.aspenpumps.com/en/aspen-pumps/supermarket-pumps/low-profile-errp
Aspen,FP3312,MINI LIME Silent+,12,10,,20,240,40,6,,IP24,5.0A N/C,Yes,N/A,101,47,239,FP3312,,HYP-D21,£24.98,Image 039,https://www.aspenpumps.com/en/aspen-pumps/silent-plus-mini-pumps/silent-mini-lime
Aspen,FP3313,Mini Orange Silent+,12,10,,19,240,40,6,,IP21,3.0A N/C,Yes,2,116,39,51,FP3313,,HYP-D11,£116.98,Image 040,https://www.airconspares.com/aspen-mini-orange-silent-air-conditioning-mini-condensate-pump-fp3313
Aspen,FP3326,Mini Aqua Silent+,12,10,,19,240,40,6,,IP24,3.0A N/C,Yes,2,183,28,28,FP3326,,HYP-RS11,£111.41,Image 041,https://www.aspenpumps.com/en/aspen-pumps/silent-plus-mini-pumps/silent-mini-aquar
Blue Diamond,FP3334,Arctic Blue Slim,50,20,4.1,17,240,,32,12, IP4,,Yes,23,457,364,68,X87-840,,HY/DP30-S,"£1,412.58",Image 042,https://www.bluediamondpump.co.uk/arctikblue
marchmay.co.uk,HC-2 - CONDENSATE PUMP,Dairy Cabinet Pumps ,600,6,5.5,,240,120,25,10,,1/A,Yes, 24.6 ,300,200,292,HC-2,,HYP-HT2,£14.00,Image 043,https://marchmay.co.uk/wp-content/uploads/2020/12/HC-2-Airedale.png
STÃ–RNCH,High Flow Tank Pump, High Flow Tank Pump,300,5,,,240,,6,10,IP24,N/A,N/A,,285,138,144,FP3349,GMP95,HYP-MT3,£68.00,Image 044,https://www.kooltech.co.uk/air-conditioning-c12/condensate-removal-c34/condensate-pumps-c36/aspen-max-hi-flow-tank-pump-fp3349-p2713
Jet,Jet 668197 tank pump - ACR - 1.7lt,Tank Condensate Pumps (CB54),300,5,1.7,49,24,,6,4,IP24,N/A,N/A,,1200,75,15mm,668197,,HYP-MT2,£55.21,Image 045,https://www.wolseley.co.uk/product/jet-tank-pump---acr---17ltr/
Kooltech,KooltechÂ Kooltank Ultimate 2Ltr Condensate Tank Pump,,700,,2,45,240,55,,,,,,17,279,130,171,20015005,,HYP-MT3,£44.09,Image 046,https://www.kooltech.co.uk/air-conditioning-c12/condensate-removal-c34/condensate-pumps-c36/kooltech-kooltank-ultimate-2ltr-condensate-tank-pump-p9812
Sauermann,PE 5000,Condensate pump,6,12,,30,240,,75,15,IP 65,CE,N/A,2 m,109 mm,110 mm,91 mm,PE-5000,,NO EQUIVALANT,£263.00,Image 047,https://www.klimapro.at/sauermann-pe-5000-peristaltische-kondensatpumpe
Sauermann,PE5100,Peristaltic Condensate Pump,500,5,,30,240,55,15,6,,N/A,Yes,2m,102mm.,109,91,PE 5100,,NO EQUIVALANT,£154.48,Image 048,https://www.alphawholesale.co.uk/cfp81-sauermann-universal-pe5100-peristaltic-12m-head-14-hose
Sauermann,PE5200,Peristaltic Pump With Detection,6,12,,30,240,,35,75,IP65,2A,Yes,2m,100 mm,90 mm,100 mm,PE5200SIUN23,,NO EQUIVALANT,£154.99,Image 049,https://www.alphawholesale.co.uk/cfp82-sauermann-reservoir-float-pe5200-peristaltic-12m-head-14
HPC,PH-3-HW Boiler Hot Water & condensate pump,Relief & Boiler Condensate Pump,312,8,3.8,,240,100,9.5,6,, 0.75 A,Yes,8,325 m,160 mm,249 m,PH-3.8L-H,,HYP-HT2,£254.69,Image 050,https://hvac-kit.co.uk/acatalog/Pump-House-PH-3.8L-HW-Pressure-Relief---Boiler-Condensate-Pump-27408.html
Saniflo,SANIFLO SANICONDENS BEST CONDENSATE PUMP,condensate pump,113,5,,44,115,80,25,22,,N/A,N/A,,11-7/8 in,7-1/2 in,10 in,SANFSF041,,HYP-HT2,£159.80,Image 051,https://www.faucetdepot.com/prod/Saniflo-041-Sanicondens-Best-2-in-1-Condensate-Pump---White-193013.asp
Sauermann,SI - 1830,HVAC Condensate Pump,400,3.7,0.5,43,240,120,10,,IPX4,4A N/C,,,221 mm,100 mm,106 mm ,SI1830SCUN23,,HYP-HT3,£63.50,Image 052,https://www.directindustry.com/prod/sauermann/product-63306-2116749.html
Sauermann,Si - 1931,Condensate pump,700,24.6,6.5,60,240,,32-50,,IP20,8A N/O,,,610,235,80,SI1931CE01UK23,,HY/DP30-S,£ 352.43,Image 053,https://www.directindustry.com/prod/sauermann/product-63306-1812699.html
Sauermann,SI 1805,Condensate pump,500,5.4,2,47,240,130,Oct-20,,IP20,4A N/C,Yes,,195,130,122,SI1805,,HYP-HT2,£60.00,Image 054,https://www.testequipmentdepot.com/sauermann/centrifugal-tank-pump/centrifugal-tank-pump-si-1805.htm
Sauermann,Si-1806,Condensate pump,300,4.8,1.9,60,240,65,,20,IP20,N/A,N/A,5,290 ,130, 180mm,SI1806,WF38860,HYP-HT2,£146.47,Image 055,https://bhl.co.uk/sauermann-si1806-heating-condensing-pump-kit-si1806-wf38860.html
Sauermann,Si-1822,evacuate heavy and contaminated condensates,380,5.8,3.8,47,240,80,10,,IP20,4A N/C,Yes,,305,152,235,SI1822,,HYP-HT2,£74.00,Image 056,https://sauermanngroup.com/en-INT/condensate-pumps/condensate-tank-pumps/si-1822
Sauermann,Si-1850,Condensate pump,1100,10,3.8,66,240,87,Oct-20,,IP20,4A N/C,Yes,,305,152,257,SI1850,,HYP-HT2,£ 338,Image 057,https://www.birch-sales.com/tank-pumps/4300-sauermann-si-1850-tank-pump-si1850siun23.html
Sauermann,Si-82,Condensate pump,500,5,,45,240,80,06-Oct,,IP20,4A N/C,Yes,,279,130,174.5,SI82,,HYP-MT2,£66.00,Image 058,https://www.schiessl-kaelte.com/en_IT/Shop/Air%20conditioners%20%26%20ventilation%20systems/Drain%20pipe%20systems%20%26%20condensate%20pumps/Condensate%20pumps/Sauermann-condensate-pump-Si-82-230V-max.500L-h.incl.PVC-hose~p403210
Sauermann,Si-83,Condensate pump,700,5.4,2,45,240,80,6,10,IP44,5A N/C,Yes,,287,146,129,SI83,,HYP-MT2,£65.00,Image 059,https://www.greenmillac.com/Products/Condensate-Pumps/Sauermann-Tank-Pump-SI83.html
HPC,TP1 Boiler and air-conditioning condensate pump,Boiler and air-conditioning condensate pump,460,5.5,,46,100 - 240,60,12,6,IP 44,0.2 - 0.1 A,N/A,,215,180,215,HPC TP1,,HYP-MT3,,Image 060,https://www.xylem.com/siteassets/brand/lowara/resources/tp-1-condensate-removal-pump/tp1-ed-en.pdf
Little Giant,TPS Peristalti (553674, CONDENSATE REMOVAL PUMP,9.46,14.8,2,,240,140,96,98,IP52,,Yes, 2 ,98 mm,96mm,115 mm,553674,,NO EQUIVALANT,£93.00,Image 061,https://www.airconspares.com/little-giant-tps-peristaltic-condensate-removal-pump-553674
HPC,UPC 30 Dairy Cabinet Pump,Dairy Cabinet Pump,630,24,4.6,,240,,38,12,, 0.5A,N/A,,"22 ""","10""", 3 inches,UPC30,,HY/DP30-S,£234.00,Image 062,https://www.huntingdonpump.com/condensate-waste-pumps.php
Little Giant,VCC20 (554210),CONDENSATE PUMP,300,5,1,45,240,120,9.5,9.5,IP20,0.5A N/C,Yes,20,305,127,130,554210,,HYP-MT1,£130.32,Image 063,https://plumbingonline.ca/products/little-giant-554210
Little Giant,VCC-20-P (554220102),Condensate Removal Pump,300,5,1,,240,140,9.5,9.5,IP20,0.5A N/C,Yes,20,305,127,130,554220102,,HYP-MT1,£151.00,Image 064,https://www.plumbersstock.com/little-giant-554220102-vcc-20-p.html
Little Giant,VCC-20ULS (554200),Automatic Condensate Removal Pump,300,1,11.35,17,115,50,50,10,,,Yes,20,"12""","5""","5.12""",VCC-20ULS,,HYP-MT1,£60.00,Image 065,https://www.amazon.com/Little-554200-Profile-Condensate-Removal/dp/B0025POSK6
Little Giant,VCL-24ULS (553201),Condensate Pump,1000,0.3,3.8,17,115,120,6.35,9.5,IP52,1/A,Yes,24,32.7 cm,16.51 cm,27.94 cm,VCL-24ULS,,NO EQUIVALANT,£257.05,Image 066,https://www.raptorsupplies.com/pd/little-giant-pumps/vcl-24uls
Little Giant,VCL45S (553138),High Capacity Tank Type Condensate Pump,1500,11,3.8,17,240,50,6,6,IP52,1/A,Yes,2 m,305 mm,150,267,VCL45S 553138,,HYP-MT3,£377.64,Image 067,https://www.pipelagging.com/accessories-insulation-tape-glue-tools/air-conditioning-shop1/little-giant-vcl45s-553138-high-capacity-tank-type-condensate-pump
Little Giant,VCMA 20 (554451),Condensate Removal Pump,300,5,2.25,,240,140,9.5,6,IP20,0.5A N/C,Yes,20,280,127,178,VCMA-20UL,554451,HYP-MT2,£65.00,Image 068,https://megadepot.com/product/little-giant-554451-vcma-20ul-1-30-hp-80-gph-condensate-removal-advanced-pump-6-cord-230v
Little Giant,VCMX-20S (554532),NXTGEN CONDENSATE TANK PUMP,284,4.8,1.4,,240,50,,,IP 20,1/A,Yes,20,26 Cm,13 Cm,17Cm,VCMX-20S,554532,HYP-MT2,£86.39,Image 069,https://www.airconspares.com/little-giant-vcmx-20s-nxtgen-condensate-tank-pump-554532
Little Giant,VCMX-20UL (554521),Condensate Removal Pump,300,5,,,240,60,9.5,9.5,IP24,0.6A N/C,Yes,20,260,122,165,554521,554521,HYP-MT2,£65.00,Image 070,https://megadepot.com/product/little-giant-554521-vcmx-20ul-1-3-hp-80-gph-next-generation-condensate-removal-pump-230v-60hz
Charles Austen,W625695,MiniBlue ,8,8,8,,240,,6.3,6.3,IP31,,Yes,5,105, 66,56,X87-500,,HYP-RS21,£167.14 ,Image 072,https://www.brymec.com/charles-austen-mini-blue-pump-temp-sensor.html
STUART TURNER,WASTEFLO BC3 BOILER CONDENSATE PUMP 240V,BOILER CONDENSATE PUMP,288,5,2,,240,,3,,,0.6A,N/A,,244mm,148mm ,164mm,46663,,HYP-HT2,£61.00,Image 073,https://www.anchorpumps.com/stuart-turner-wasteflo-bc3-boiler-condensate-pump-240v
Blue Diamond,X87-500,Mini Blue with CR Plugs,8,8,,21,240,40,14,6,IP4,,Yes,5,138,58,67,X87-500,,HYP-RS21,£63.73,Image 074,https://www.indiamart.com/proddetail/blue-diamond-economini-bonus-with-cr-plug-bd18-22602909291.html
Blue Diamond,X87-701,Maxi Blue with Reservoir,14,8,,21,240,,12,6,IP24,,Yes,8,158,58,67,,,HYP-RS21,£17.78,Image 075,https://www.hawco.co.uk/en/blue-diamond-condensate-pump-maxi-blue
Blue Diamond,X87-703,Maxi Blue with Drainstik,14,8,,21,240,,40,10, IP4,,Yes,8,158,58,67,X87-702,,HYP-RS21,£123.13,Image 076,https://www.airconspares.com/x87-703-blue-diamond-maxi-blue-230v-temp-sensor-condensate-pump
Blue Diamond,X87-703,Mini Blue with Temperature Sensors,8,8,,21,240,,6.3,6.3, IP4,,Yes,5,138,58,67,X87-504,,HYP-RS21,£63.73,Image 076,https://www.hawco.co.uk/en/blue-diamond-condensate-pump-mini-blue
Blue Diamond,X87-703,Mini Blue R,8,8,,21,240,,32,16, IP4,,Yes,5,138,58,67,X87-507,,HYP-RS21,£84.71,Image 076,https://www.airconspares.com/x87-703-blue-diamond-maxi-blue-230v-temp-sensor-condensate-pump
Blue Diamond,X87-707,Maxi Blue Pro,14,8,,21,115,,14,14,IP24,,Yes,8,158,58,67,X87-707,,HYP-RS21,£ 140.06,Image 076,https://www.bluediamondpump.co.uk/maxibluepro
Blue Diamond,X87-813,Mega Blue with Temperature Sensors,50,20,,23,240,40,14,6,IP21,3.0A N/C,Yes,7,234,58,68,X87-814,,HYP-RS21,,Image 076,https://www.pipelagging.com/accessories-insulation-tape-glue-tools/air-conditioning-shop1/condensate-pumps/x87-813-mega-blue-diamond-230v-reservoir-condensate-pump
Blue Diamond,X87-813,Mega Blue with Drainstik,50,20,,23,240,40,14,6,IP4,3.0A N/C,Yes,7,234,58,68,X87-820,,HYP-RS21,£148,Image 076,https://www.ac-one.co.uk/blue-diamond-megablue-condensate-pump-16305-p.asp
Blue Diamond,X87-814,Mega Blue with Reservoir,50,20,,23,240,40,12,6,IP19,3.0A N/C,Yes,7,234,58,68,X87-813,,HYP-MT2,£19.45,Image 076,https://www.pipelagging.com/accessories-insulation-tape-glue-tools/air-conditioning-shop1/condensate-pumps/x87-813-mega-blue-diamond-230v-reservoir-condensate-pump
Blue Diamond,X87-814,Arctic Blue,50,20,4.1,,240,,40,12, IP4,,Yes,7,430,305,87,X87-837,,HYP-RS21,£128.90,Image 084,https://www.hawco.co.uk/en/blue-diamond-condensate-pump-mega-blue
